absl-py==1.4.0
aiosignal==1.3.1
astor==0.8.1
attrs==22.2.0
beautifulsoup4==4.11.2
blis==0.7.9
Bottleneck==1.3.6
catalogue==2.0.8
charset-normalizer==3.0.1
click==8.1.3
confection==0.0.4
cycler==0.11.0
cymem==2.0.7
distlib==0.3.6
editdistance==0.6.2
et-xmlfile==1.1.0
fastai==1.0.60
fastprogress==1.0.3
filelock==3.9.0
fonttools==4.38.0
frozenlist==1.3.3
future==0.18.3
gast==0.5.3
grpcio==1.51.3
h5py==3.8.0
idna==3.4
imageio==2.26.0
importlib-metadata==6.0.0
importlib-resources==5.12.0
Jinja2==3.1.2
jsonschema==4.17.3
Keras-Applications==1.0.8
Keras-Preprocessing==1.1.2
kiwisolver==1.4.4
langcodes==3.3.0
llvmlite==0.39.1
lmdb==1.4.0
Markdown==3.4.1
MarkupSafe==2.1.2
matplotlib==3.5.3
mkl-fft==1.3.1
mkl-service==2.4.0
mock==5.0.1
msgpack==1.0.5
murmurhash==1.0.9
networkx==2.6.3
numexpr==2.8.4
numpy==1.21.6
nvidia-ml-py3==7.352.0
nvidia-pyindex==1.0.9
olefile==0.46
opencv-python==4.7.0.68
openpyxl==3.1.1
packaging==23.0
pandas==1.3.5
pathy==0.10.1
Pillow==9.4.0
pip-chill==1.0.1
pkgutil_resolve_name==1.3.10
platformdirs==3.1.1
preshed==3.0.8
prettytable==3.6.0
protobuf==3.20.3
pydantic==1.10.5
pyparsing==3.0.9
pyrsistent==0.19.3
python-dateutil==2.8.2
pytz==2022.7.1
PyWavelets==1.3.0
PyYAML==6.0
ray==2.3.0
requests==2.28.2
scikit-image==0.19.3
scipy
smart-open==6.3.0
soupsieve==2.4
spacy==3.5.0
spacy-legacy==3.0.12
spacy-loggers==1.0.4
sphinx-glpi-theme==0.3
srsly==2.4.5
tensorboard==1.13.1
tensorboardX==2.6
tensorflow==1.13.1
tensorflow-estimator==1.13.0
termcolor==2.2.0
thinc==8.1.7
tifffile==2021.11.2
torch==1.5.0
torchvision==0.6.0
tqdm==4.64.1
typer==0.7.0
urllib3==1.26.14
virtualenv==20.20.0
wasabi==1.1.1
wcwidth==0.2.6
Werkzeug==2.2.3
zipp==3.14.0

